<?xml version="1.0" encoding="UTF-8" standalone="no"?>
<!-- Created with Inkscape (http://www.inkscape.org/) -->

<svg
   width="21.642916mm"
   height="18.273701mm"
   viewBox="0 0 21.642916 18.273701"
   version="1.1"
   id="svg2510"
   sodipodi:docname="altpapier.svg"
   inkscape:version="1.1.2 (0a00cf5339, 2022-02-04)"
   xmlns:inkscape="http://www.inkscape.org/namespaces/inkscape"
   xmlns:sodipodi="http://sodipodi.sourceforge.net/DTD/sodipodi-0.dtd"
   xmlns="http://www.w3.org/2000/svg"
   xmlns:svg="http://www.w3.org/2000/svg">
  <sodipodi:namedview
     id="namedview26"
     pagecolor="#ffffff"
     bordercolor="#666666"
     borderopacity="1.0"
     inkscape:pageshadow="2"
     inkscape:pageopacity="0.0"
     inkscape:pagecheckerboard="0"
     inkscape:document-units="mm"
     showgrid="false"
     inkscape:zoom="0.55945567"
     inkscape:cx="-51.8361"
     inkscape:cy="18.768243"
     inkscape:window-width="1920"
     inkscape:window-height="1015"
     inkscape:window-x="0"
     inkscape:window-y="0"
     inkscape:window-maximized="1"
     inkscape:current-layer="svg2510" />
  <defs
     id="defs2507" />
  <g
     id="layer1"
     transform="translate(-118.76134,-143.14659)">
    <g
       id="g2275"
       transform="translate(84.154524,10.714363)"
       style="fill:#2072b9;fill-opacity:1">
      <g
         id="g1163"
         transform="matrix(0.26458333,0,0,0.26458333,27.436612,120.80801)"
         style="fill:#2072b9;fill-opacity:1">
        <path
           class="st2"
           d="m 62,98.2 c 0,0 0,0 0,0 z"
           id="path1125"
           style="fill:#2072b9;fill-opacity:1" />
        <path
           class="st2"
           d="m 93.7,56.1 v 0 c -0.1,0 -0.2,0 -0.3,-0.1 z"
           id="path1127"
           style="fill:#2072b9;fill-opacity:1" />
        <path
           class="st2"
           d="m 94.3,54.8 c 0,0 0,0 0,0 -0.1,0.1 -0.2,0.1 0,0 z"
           id="path1129"
           style="fill:#2072b9;fill-opacity:1" />
        <path
           class="st2"
           d="m 83.3,76.9 c -0.1,0.1 -0.1,0.1 -0.1,0.2 0,-0.1 0,-0.2 0.1,-0.2 z"
           id="path1131"
           style="fill:#2072b9;fill-opacity:1" />
        <path
           class="st2"
           d="m 54.2,80.4 c 0,0 0,0.1 0,0 0,0 0,-0.1 0,-0.1 z"
           id="path1133"
           style="fill:#2072b9;fill-opacity:1" />
        <path
           class="st2"
           d="m 54.5,80.5 c 0.1,0.3 -0.2,0 -0.3,-0.1 0,0.3 0.1,0.6 0.4,0.8 0.2,0 -0.2,-0.5 -0.1,-0.7 z"
           id="path1135"
           style="fill:#2072b9;fill-opacity:1" />
        <path
           class="st2"
           d="m 34.3,49.6 0.1,0.1 c 0,0 0,-0.1 -0.1,-0.1 z"
           id="path1137"
           style="fill:#2072b9;fill-opacity:1" />
        <path
           class="st2"
           d="m 91.2,81.4 c 0,0.1 -0.1,0.1 -0.1,0.2 0.1,-0.1 0.1,-0.1 0.1,-0.2 z"
           id="path1139"
           style="fill:#2072b9;fill-opacity:1" />
        <path
           class="st2"
           d="m 36.8,54.8 0.3,-0.1 c -0.2,0 -0.3,0.1 -0.3,0.1 z"
           id="path1141"
           style="fill:#2072b9;fill-opacity:1" />
        <path
           class="st2"
           d="m 93.4,56 h -0.1 c 0,0 0.1,0 0.1,0 z"
           id="path1143"
           style="fill:#2072b9;fill-opacity:1" />
        <path
           class="st2"
           d="m 87.7,54.5 c 0,-0.1 0,-0.2 -0.1,-0.2 0,0 0,0 0,0 z"
           id="path1145"
           style="fill:#2072b9;fill-opacity:1" />
        <path
           class="st2"
           d="m 35.9,48.9 c 0,0 0,0.1 0,0.1 l 0.2,-0.2 C 36,48.9 36,48.9 35.9,48.9 Z"
           id="path1147"
           style="fill:#2072b9;fill-opacity:1" />
        <path
           class="st2"
           d="m 73.6,53 c 0,0 0,0.1 0,0.1 0.2,0.1 0.9,0.1 1.7,0.1 l 0.1,-0.4 z"
           id="path1149"
           style="fill:#2072b9;fill-opacity:1" />
        <path
           class="st2"
           d="m 58.3,44.3 1.5,0.8 c -4.8,0.2 -7.1,-0.5 -11.2,0 l 0.2,-0.2 c -0.6,-0.2 -1,1.4 -7.6,-0.7 v -0.1 c -0.2,0 -0.2,0.2 -0.7,0 l 1.1,0.5 c -0.7,0.2 -1.3,0.5 -2.2,0.5 -0.2,-0.1 -0.3,-0.2 -0.3,-0.4 l -2.3,0.1 -0.7,-0.5 c -0.7,0.2 -0.4,1.2 -2.2,0.7 0.7,0.7 -0.9,0.4 -0.7,0.7 -0.1,-0.1 -0.3,-0.2 -0.5,-0.3 -1.1,0.1 -3.2,0.2 -3.7,0.6 0,0 4.3,1.5 5.4,2.3 -1.5,-0.2 -0.4,0.1 -0.1,0.3 l 0.1,-0.2 c 0.9,0.2 0.9,0.6 1.4,0.7 0,0 0,-0.1 0,-0.1 l -0.1,0.1 c 0,-0.1 0,-0.1 0,-0.2 0,-0.1 0,-0.2 0.3,-0.1 v 0 c 0.4,-0.1 1.1,0 1.3,0.1 v 0.4 c 0.7,-0.7 4.6,1.1 5.5,1.2 0.9,0.5 2.1,-0.1 3.2,0.2 1.8,0.1 0.9,0.5 1.8,0.9 1.1,0.2 -0.2,-0.4 0.2,-0.4 l 1.4,0.5 c -0.8,0 -0.4,0.3 -0.2,0.4 1.2,0.1 3.1,0.8 3.4,0.1 1.6,0.4 1.6,0.7 2.3,0.7 -0.2,-0.1 -0.7,-0.3 -0.7,-0.4 0.6,0.3 0.3,-0.1 0,-0.1 1,-0.3 5.1,1.4 5.3,0.6 v 0.1 c 0.2,-0.6 -0.1,-1.2 0.6,-1.5 l 0.5,0.3 0.7,-0.2 c 0.5,0.2 0.2,0.4 0.2,0.4 1.1,-0.3 2.7,0.1 4,0.2 l -1.4,-1.6 c 1.1,0.4 3.2,1.2 3.4,0.7 l 0.7,0.6 c 2.3,1.1 1.6,-0.4 2.5,-0.1 l 1.1,0.6 h -1.2 c 1.1,0.3 1.6,0.5 2.5,0.9 0,0 0,0 0,0 C 73,53.4 73,53.3 73,53.3 h 0.2 c 0.1,-0.3 0.7,-0.5 1.6,-0.4 1.1,0.1 2.1,-0.3 3.9,0.3 l 0.5,-0.6 1.4,0.4 v 0.5 c -1.4,-0.1 -3.9,0.1 -5.6,0.1 v 0.2 c 1,0 2.2,-0.2 2.9,-0.1 0.3,0.1 1.2,0.6 0.5,0.9 L 79,54.1 c 3.4,0 3.5,0 7,0.6 v -0.5 c 0.7,-0.1 1.4,-0.3 1.6,0.1 1.1,0.1 2.2,0.2 3.2,0.4 0.5,0.1 1,0.2 1.4,0.3 0.2,0.1 0.4,0.1 0.6,0.2 l 0.3,0.1 c 0,0 0.1,0 0.1,0.1 v 0.1 c 0,-0.2 0,-0.4 0.1,-0.6 0.1,0 0,0.9 0.3,0.1 0.1,-0.1 0.2,-0.2 0.3,-0.2 0.1,0 0.4,-0.3 0.4,0.1 v 0 0 0.1 0 c 0.1,0.3 0.5,-0.5 0.6,-0.2 -0.3,0.4 1,-0.7 1.1,-0.6 -0.3,0.3 -0.6,0.5 -0.9,0.8 -0.6,0.6 0.4,0 0.2,0.6 -0.5,0.4 -1.3,0.5 -2,0.7 0.5,-0.1 0.6,-0.1 0.7,-0.1 0.1,0 0.1,0 0.3,0.1 -0.3,0 -0.4,0 -0.7,0 -0.4,0 0.3,0 0.2,0.1 0.6,0.1 1.5,0.4 1.5,0.5 l 0.2,-0.1 c 0,0.1 0.1,0.2 0.1,0.3 0,0.1 0,0.1 -0.1,0.4 -0.2,0.4 -0.4,0.8 -0.7,1.2 l -0.2,-0.2 -0.3,1 -0.4,-0.1 -0.5,1.4 0.2,-0.1 c -0.1,0.3 -0.5,1.4 -0.9,1.9 l -0.2,-0.1 c -1.4,1.3 -1.3,3 -2.3,4.9 L 90,67 c -0.7,0.4 0.5,0.5 -0.1,1.1 l -0.5,-0.2 c 0.2,1 -0.6,0.8 -1.1,1.1 l 0.7,0.1 -0.6,0.8 c -0.7,0.8 -1.1,0.1 -1.3,-0.2 l 0.1,0.9 -0.6,-0.2 c 0.3,0.8 -0.4,0.4 -0.5,1.4 -0.2,-0.1 -0.2,-0.3 -0.5,-0.1 0,0.6 -0.1,1.1 -0.1,1.7 l 0.2,-1 0.7,0.6 c 0,1.2 -0.8,1 -1,1.7 l 0.1,-0.5 c -0.5,1 -0.8,0.9 -1.3,1.3 0.2,-0.1 0.6,-0.2 0.4,0.3 -0.1,0.3 -0.4,0 -0.6,0.2 0.4,0.4 0.2,1.2 -0.5,1.6 -0.1,-0.1 -0.1,-0.1 -0.1,-0.2 0,0.2 0,0.4 -0.3,0.5 l -0.6,-0.9 0.1,0.9 c -0.4,0.2 -0.4,1 -0.7,0.7 v -0.3 c -0.7,0.8 -1.4,1.6 -2.1,2.3 l -0.4,-0.3 c 0.3,0.7 -1.3,1.1 -0.6,1.6 -0.8,0.1 -1.3,2 -1.8,1.1 -1.5,1.5 -1.5,3 -3.7,4.6 -1.3,0.1 -2.8,2.2 -4,3.4 -1.9,2.7 -3.2,4.5 -5.2,7.1 -0.6,-0.2 -0.6,-0.1 -0.7,0.3 -0.1,0.3 -0.4,1 -0.5,0.6 0,0.3 -0.1,0.6 -0.2,0.8 C 62.6,99 62.5,99 62.4,98.8 62.3,98.7 62.1,98.4 62.2,97.9 62,98 61.9,98 61.9,98 c 0,0 -0.1,0.1 -0.3,0.4 0.1,-0.3 -0.3,-0.5 0.3,-0.7 H 62 c 0.3,-0.2 0.2,-0.2 0.1,-0.2 -0.2,-0.3 -0.5,-0.9 -0.3,-1.3 l -0.5,0.5 -0.2,-1 0.2,0.2 c -1.4,-1.9 -1.7,-3.7 -2.1,-5.5 -0.4,-1.7 -0.9,-3.6 -2.5,-5.6 0.9,0.3 -0.8,-0.7 -0.1,-1.1 0.3,-1.6 -1.3,-1.9 -2,-2.6 0,0 -0.1,0 -0.2,0 L 53.6,79.6 C 55,80 52.3,79 53.5,79.3 c -0.9,-2.1 -2.4,-4.2 -3.9,-6.2 -1.5,-2 -3.1,-4 -4.3,-6.1 l -0.1,0.3 c -0.6,-1 -1.7,-2.1 -1.9,-3.1 -0.2,-1 -1.6,-1.4 -1.8,-1.6 C 40.6,62 40.9,60.7 41,61.1 40.3,60.2 39.1,59.8 38.6,58.3 39.1,57.5 35.9,55.1 36.7,54.6 h -0.1 c -0.3,-2 -2.1,-3.1 -2.5,-5.2 0,0 0.1,0 0.2,0 -1.5,-0.9 -2.9,-1.7 -4.3,-2.7 l -2.3,2.4 c -0.2,1.5 -0.4,3 -0.6,4.5 1.7,3.1 3.5,6 5.4,9 1.1,2.6 2.3,5.1 3.5,7.6 1.9,2.8 3.9,5.6 5.9,8.2 1.9,2.6 3.8,5.1 5.3,7.6 0.4,0.2 0.8,0.5 1.2,0.8 0.3,1.8 1.1,3.4 1.8,5.3 0.7,1.9 1.5,4 1.7,6.2 l 0.6,-0.1 c 0.4,1.2 0,1.2 0,1.5 l 0.4,1.2 c 0.2,0.6 0.5,1.2 0.7,1.8 0.2,0.6 0.5,1.1 0.8,1.7 0.3,0.6 0.6,1.1 0.9,1.6 0.3,0.5 0.6,1 1,1.5 l 1,1.3 2.2,2.4 1.1,1.2 c 0.2,0.2 0.4,0.4 0.6,0.6 l 0.6,-0.5 2.4,-2 c 1.6,-1.1 3.3,-3.3 4.9,-5.1 1.1,-1.2 2.2,-2.5 3.3,-3.7 0.9,-1 1.8,-2 2.7,-2.9 1.8,-1.9 3.6,-3.7 5.4,-5.4 0.9,-0.4 2.7,-2.7 3.5,-3 1.6,-2.9 3.9,-5.6 6,-8.2 v 0.1 L 90.9,81 c 0.1,0 0.1,0 0.1,0.1 0.6,-1.8 2.7,-3.8 4,-5.6 v 0.1 c 1.7,-2.7 3.2,-5.5 4.5,-8.3 0.7,-1.4 1.3,-2.8 1.9,-4.1 0.7,-1.6 1.4,-3.3 2.1,-4.9 l 3.1,-7.3 1.5,-3.6 0.8,-1.8 v -0.1 c 0,0 0,0 -0.1,0 h -0.1 -0.2 -0.5 -1 C 104.4,45.4 101.7,45.3 99,45.2 97.6,45.1 96.3,45.1 94.9,45 L 93,44.9 91.9,44.8 C 86.3,43.7 79.8,45 73.4,44 c -1,-0.2 -13.9,0.1 -15.1,0.3 z"
           id="path1151"
           style="fill:#2072b9;fill-opacity:1" />
        <path
           class="st2"
           d="m 39.2,44.8 v 0 c 0,-0.3 0,-0.2 0,0 z"
           id="path1153"
           style="fill:#2072b9;fill-opacity:1" />
        <polygon
           class="st2"
           points="66.1,52.5 65.9,52.1 65.8,52.1 "
           id="polygon1155"
           style="fill:#2072b9;fill-opacity:1" />
        <path
           class="st2"
           d="m 48.7,52 c 0.8,0.1 0.8,0 0.7,-0.1 -0.3,0 -0.5,0.1 -0.7,0.1 z"
           id="path1157"
           style="fill:#2072b9;fill-opacity:1" />
        <path
           class="st2"
           d="m 32.9,45.2 c -0.4,0 -0.3,0.1 0,0.3 0.4,0 0.7,0 0.7,0 -0.3,-0.1 -0.5,-0.3 -0.7,-0.3 z"
           id="path1159"
           style="fill:#2072b9;fill-opacity:1" />
        <path
           class="st2"
           d="m 34.5,48.6 -0.1,0.2 c 0.2,0 0.2,-0.1 0.1,-0.2 z"
           id="path1161"
           style="fill:#2072b9;fill-opacity:1" />
      </g>
    </g>
  </g>
</svg>
